…
3) Right after importing the data
---------------------------------

-   Process on the column "Experience"

``` r
nba2017[["Experience"]][nba2017[["Experience"]] == "R"] <- "0"
nba2017$Experience <- as.integer(nba2017$Experience)
nba2017
```

    ## # A tibble: 441 x 24
    ##               Player  Team Position Experience   Salary  Rank   Age    GP
    ##                <chr> <chr>   <fctr>      <int>    <dbl> <int> <int> <int>
    ##  1        Al Horford   BOS        C          9 26540100     4    30    68
    ##  2      Amir Johnson   BOS       PF         11 12000000     6    29    80
    ##  3     Avery Bradley   BOS       SG          6  8269663     5    26    55
    ##  4 Demetrius Jackson   BOS       PG          0  1450000    15    22     5
    ##  5      Gerald Green   BOS       SF          9  1410598    11    31    47
    ##  6     Isaiah Thomas   BOS       PG          5  6587132     1    27    76
    ##  7       Jae Crowder   BOS       SF          4  6286408     3    26    72
    ##  8       James Young   BOS       SG          2  1825200    13    21    29
    ##  9      Jaylen Brown   BOS       SF          0  4743000     8    20    78
    ## 10     Jonas Jerebko   BOS       PF          6  5000000    10    29    78
    ## # ... with 431 more rows, and 16 more variables: GS <int>, MIN <int>,
    ## #   FGM <int>, FGA <int>, Points3 <int>, Points3_atts <int>,
    ## #   Points2 <int>, Points2_atts <int>, FTM <int>, FTA <int>, OREB <int>,
    ## #   DREB <int>, AST <int>, STL <int>, BLK <int>, TO <int>
…
    ## [1] 1.72758

-   Create a data frame players2

``` r
players2 <- select(filter(nba2017, MPG >= 20), Player, MPG, EFF, Salary)
players2
```

    ## # A tibble: 231 x 4
    ##            Player      MPG       EFF   Salary
    ##             <chr>    <dbl>     <dbl>    <dbl>
    ##  1     Al Horford 32.25000 12.676471 26540100
    ##  2   Amir Johnson 20.10000  7.900000 12000000
    ##  3  Avery Bradley 33.36364  7.854545  8269663
    ##  4  Isaiah Thomas 33.80263 12.486842  6587132
    ##  5    Jae Crowder 32.43056  9.263889  6286408
    ##  6   Kelly Olynyk 20.50667  7.373333  3094014
    ##  7   Marcus Smart 30.36709  7.784810  3578880
    ##  8 Deron Williams 20.25000  4.541667   259626
    ##  9    Edy Tavares 24.00000 16.000000     5145
    ## 10  Iman Shumpert 25.48684  4.000000  9700000
    ## # ... with 221 more rows
…
